{
  "configVersion": 2,
  "packages": [
    {
      "name": "async",
      "rootUri": "file:///Users/tungle/.pub-cache/hosted/pub.dartlang.org/async-2.5.0",
      "packageUri": "lib/",
      "languageVersion": "2.12"
    },
    {
      "name": "boolean_selector",
      "rootUri": "file:///Users/tungle/.pub-cache/hosted/pub.dartlang.org/boolean_selector-2.1.0",
      "packageUri": "lib/",
      "languageVersion": "2.12"
    },
    {
      "name": "characters",
      "rootUri": "file:///Users/tungle/.pub-cache/hosted/pub.dartlang.org/characters-1.1.0",
      "packageUri": "lib/",
      "languageVersion": "2.12"
    },
    {
      "name": "charcode",
      "rootUri": "file:///Users/tungle/.pub-cache/hosted/pub.dartlang.org/charcode-1.2.0",
      "packageUri": "lib/",
      "languageVersion": "2.12"
    },
    {
      "name": "charts_common",
      "rootUri": "file:///Users/tungle/.pub-cache/hosted/pub.dartlang.org/charts_common-0.9.0",
      "packageUri": "lib/",
      "languageVersion": "2.3"
    },
    {
      "name": "charts_flutter",
      "rootUri": "file:///Users/tungle/.pub-cache/hosted/pub.dartlang.org/charts_flutter-0.9.0",
      "packageUri": "lib/",
      "languageVersion": "1.23"
    },
    {
      "name": "clock",
      "rootUri": "file:///Users/tungle/.pub-cache/hosted/pub.dartlang.org/clock-1.1.0",
      "packageUri": "lib/",
      "languageVersion": "2.12"
    },
    {
      "name": "collection",
      "rootUri": "file:///Users/tungle/.pub-cache/hosted/pub.dartlang.org/collection-1.15.0",
      "packageUri": "lib/",
      "languageVersion": "2.12"
    },
    {
      "name": "cupertino_icons",
      "rootUri": "file:///Users/tungle/.pub-cache/hosted/pub.dartlang.org/cupertino_icons-1.0.0",
      "packageUri": "lib/",
      "languageVersion": "2.0"
    },
    {
      "name": "fake_async",
      "rootUri": "file:///Users/tungle/.pub-cache/hosted/pub.dartlang.org/fake_async-1.2.0",
      "packageUri": "lib/",
      "languageVersion": "2.12"
    },
    {
      "name": "flutter",
      "rootUri": "file:///Users/tungle/Documents/flutter/flutter/packages/flutter",
      "packageUri": "lib/",
      "languageVersion": "2.12"
    },
    {
      "name": "flutter_test",
      "rootUri": "file:///Users/tungle/Documents/flutter/flutter/packages/flutter_test",
      "packageUri": "lib/",
      "languageVersion": "2.12"
    },
    {
      "name": "intl",
      "rootUri": "file:///Users/tungle/.pub-cache/hosted/pub.dartlang.org/intl-0.16.1",
      "packageUri": "lib/",
      "languageVersion": "2.5"
    },
    {
      "name": "logging",
      "rootUri": "file:///Users/tungle/.pub-cache/hosted/pub.dartlang.org/logging-0.11.4",
      "packageUri": "lib/",
      "languageVersion": "2.0"
    },
    {
      "name": "matcher",
      "rootUri": "file:///Users/tungle/.pub-cache/hosted/pub.dartlang.org/matcher-0.12.10",
      "packageUri": "lib/",
      "languageVersion": "2.12"
    },
    {
      "name": "meta",
      "rootUri": "file:///Users/tungle/.pub-cache/hosted/pub.dartlang.org/meta-1.3.0",
      "packageUri": "lib/",
      "languageVersion": "2.12"
    },
    {
      "name": "nested",
      "rootUri": "file:///Users/tungle/.pub-cache/hosted/pub.dartlang.org/nested-0.0.4",
      "packageUri": "lib/",
      "languageVersion": "2.2"
    },
    {
      "name": "path",
      "rootUri": "file:///Users/tungle/.pub-cache/hosted/pub.dartlang.org/path-1.8.0",
      "packageUri": "lib/",
      "languageVersion": "2.12"
    },
    {
      "name": "provider",
      "rootUri": "file:///Users/tungle/.pub-cache/hosted/pub.dartlang.org/provider-4.3.3",
      "packageUri": "lib/",
      "languageVersion": "2.7"
    },
    {
      "name": "sky_engine",
      "rootUri": "file:///Users/tungle/Documents/flutter/flutter/bin/cache/pkg/sky_engine",
      "packageUri": "lib/",
      "languageVersion": "2.12"
    },
    {
      "name": "source_span",
      "rootUri": "file:///Users/tungle/.pub-cache/hosted/pub.dartlang.org/source_span-1.8.0",
      "packageUri": "lib/",
      "languageVersion": "2.12"
    },
    {
      "name": "stack_trace",
      "rootUri": "file:///Users/tungle/.pub-cache/hosted/pub.dartlang.org/stack_trace-1.10.0",
      "packageUri": "lib/",
      "languageVersion": "2.12"
    },
    {
      "name": "stream_channel",
      "rootUri": "file:///Users/tungle/.pub-cache/hosted/pub.dartlang.org/stream_channel-2.1.0",
      "packageUri": "lib/",
      "languageVersion": "2.12"
    },
    {
      "name": "string_scanner",
      "rootUri": "file:///Users/tungle/.pub-cache/hosted/pub.dartlang.org/string_scanner-1.1.0",
      "packageUri": "lib/",
      "languageVersion": "2.12"
    },
    {
      "name": "term_glyph",
      "rootUri": "file:///Users/tungle/.pub-cache/hosted/pub.dartlang.org/term_glyph-1.2.0",
      "packageUri": "lib/",
      "languageVersion": "2.12"
    },
    {
      "name": "test_api",
      "rootUri": "file:///Users/tungle/.pub-cache/hosted/pub.dartlang.org/test_api-0.2.19",
      "packageUri": "lib/",
      "languageVersion": "2.12"
    },
    {
      "name": "typed_data",
      "rootUri": "file:///Users/tungle/.pub-cache/hosted/pub.dartlang.org/typed_data-1.3.0",
      "packageUri": "lib/",
      "languageVersion": "2.12"
    },
    {
      "name": "vector_math",
      "rootUri": "file:///Users/tungle/.pub-cache/hosted/pub.dartlang.org/vector_math-2.1.0",
      "packageUri": "lib/",
      "languageVersion": "2.12"
    },
    {
      "name": "financeappui",
      "rootUri": "../",
      "packageUri": "lib/",
      "languageVersion": "2.7"
    }
  ],
  "generated": "2021-03-21T11:03:10.356443Z",
  "generator": "pub",
  "generatorVersion": "2.12.2"
}
